Bonus-Assigment/bonus/simulation/qsim/tb.msim.vcd
$comment
	File created using the following command:
		vcd file tb.msim.vcd -direction
$end
$date
	Fri Jan 06 23:38:33 2023
$end
$version
	ModelSim Version 10.5b
$end
$timescale
	1ps
$end

$scope module tb_vlg_vec_tst $end
$var reg 1 ! CLK $end
$var reg 1 " reset $end
$var wire 1 # end_out $end
$var wire 1 $ sum [7] $end
$var wire 1 % sum [6] $end
$var wire 1 & sum [5] $end
$var wire 1 ' sum [4] $end
$var wire 1 ( sum [3] $end
$var wire 1 ) sum [2] $end
$var wire 1 * sum [1] $end
$var wire 1 + sum [0] $end

$scope module i1 $end
$var wire 1 , gnd $end
$var wire 1 - vcc $end
$var wire 1 . unknown $end
$var tri1 1 / devclrn $end
$var tri1 1 0 devpor $end
$var tri1 1 1 devoe $end
$var wire 1 2 ~QUARTUS_CREATED_GND~I_combout $end
$var wire 1 3 CLK~input_o $end
$var wire 1 4 CLK~inputCLKENA0_outclk $end
$var wire 1 5 reset~input_o $end
$var wire 1 6 first|my_controller|Mux9~0_combout $end
$var wire 1 7 first|my_controller|s4[3]~0_combout $end
$var wire 1 8 first|my_controller|Add0~0_combout $end
$var wire 1 9 first|my_controller|i[0]~0_combout $end
$var wire 1 : first|my_controller|Add1~0_combout $end
$var wire 1 ; first|my_controller|i[0]~1_combout $end
$var wire 1 < first|my_controller|Decoder0~0_combout $end
$var wire 1 = first|my_controller|Add0~1_combout $end
$var wire 1 > first|my_controller|Add0~2_combout $end
$var wire 1 ? first|my_controller|Mux11~1_combout $end
$var wire 1 @ first|my_controller|Mux11~0_combout $end
$var wire 1 A first|my_controller|Add1~1_combout $end
$var wire 1 B first|my_controller|Mux13~0_combout $end
$var wire 1 C first|my_controller|Mux1~2_combout $end
$var wire 1 D first|my_controller|Mux14~2_combout $end
$var wire 1 E first|my_controller|Mux14~1_combout $end
$var wire 1 F first|my_controller|Mux14~0_combout $end
$var wire 1 G first|my_controller|end_c~0_combout $end
$var wire 1 H first|my_controller|end_c~q $end
$var wire 1 I first|my_adder|Add0~1_sumout $end
$var wire 1 J first|my_controller|Mux1~0_combout $end
$var wire 1 K first|my_controller|Mux1~1_combout $end
$var wire 1 L first|my_controller|add_c~q $end
$var wire 1 M first|my_controller|at_begin~0_combout $end
$var wire 1 N first|my_controller|at_begin~q $end
$var wire 1 O first|my_controller|s3~q $end
$var wire 1 P first|sum_control|out[0]~0_combout $end
$var wire 1 Q first|my_adder|Add0~2 $end
$var wire 1 R first|my_adder|Add0~5_sumout $end
$var wire 1 S first|sum_control|out[1]~1_combout $end
$var wire 1 T first|my_adder|Add0~6 $end
$var wire 1 U first|my_adder|Add0~9_sumout $end
$var wire 1 V first|sum_control|out[2]~2_combout $end
$var wire 1 W first|my_adder|Add0~10 $end
$var wire 1 X first|my_adder|Add0~13_sumout $end
$var wire 1 Y first|sum_control|out[3]~3_combout $end
$var wire 1 Z first|my_adder|Add0~14 $end
$var wire 1 [ first|my_adder|Add0~17_sumout $end
$var wire 1 \ first|sum_control|out[4]~4_combout $end
$var wire 1 ] first|my_adder|Add0~18 $end
$var wire 1 ^ first|my_adder|Add0~21_sumout $end
$var wire 1 _ first|sum_control|out[5]~5_combout $end
$var wire 1 ` first|my_adder|Add0~22 $end
$var wire 1 a first|my_adder|Add0~25_sumout $end
$var wire 1 b first|sum_control|out[6]~6_combout $end
$var wire 1 c first|my_adder|Add0~26 $end
$var wire 1 d first|my_adder|Add0~29_sumout $end
$var wire 1 e first|sum_control|out[7]~7_combout $end
$var wire 1 f first|my_controller|s4 [3] $end
$var wire 1 g first|my_controller|s4 [2] $end
$var wire 1 h first|my_controller|s4 [1] $end
$var wire 1 i first|my_controller|s4 [0] $end
$var wire 1 j first|my_adder|out [7] $end
$var wire 1 k first|my_adder|out [6] $end
$var wire 1 l first|my_adder|out [5] $end
$var wire 1 m first|my_adder|out [4] $end
$var wire 1 n first|my_adder|out [3] $end
$var wire 1 o first|my_adder|out [2] $end
$var wire 1 p first|my_adder|out [1] $end
$var wire 1 q first|my_adder|out [0] $end
$var wire 1 r first|my_controller|i [2] $end
$var wire 1 s first|my_controller|i [1] $end
$var wire 1 t first|my_controller|i [0] $end
$var wire 1 u first|my_controller|present_state [2] $end
$var wire 1 v first|my_controller|present_state [1] $end
$var wire 1 w first|my_controller|present_state [0] $end
$var wire 1 x first|my_controller|s1 [1] $end
$var wire 1 y first|my_controller|s1 [0] $end
$var wire 1 z first|my_controller|next_state [2] $end
$var wire 1 { first|my_controller|next_state [1] $end
$var wire 1 | first|my_controller|next_state [0] $end
$upscope $end
$upscope $end
$enddefinitions $end
#0
$dumpvars
0!
0"
0#
0+
0*
0)
0(
0'
0&
0%
0$
0,
1-
x.
1/
10
11
02
03
04
05
06
17
08
09
0:
1;
0<
0=
0>
0?
0@
0A
1B
0C
0D
0E
0F
0G
0H
0I
0J
0K
0L
0M
0N
0O
0P
0Q
0R
0S
0T
0U
0V
0W
0X
0Y
0Z
0[
0\
0]
0^
0_
0`
0a
0b
0c
0d
0e
0i
0h
0g
0f
0q
0p
0o
0n
0m
0l
0k
0j
0t
0s
0r
0w
0v
0u
0y
0x
0|
1{
0z
$end
#5000
1!
13
14
1v
1@
1<
0;
07
16
1K
1|
#10000
0!
03
04
#15000
1!
13
14
1L
1w
0B
0<
17
0K
0{
#20000
0!
03
04
#25000
1!
13
14
0L
0v
1i
1E
1?
1B
0@
1;
07
1I
18
06
1M
0|
1{
#30000
0!
03
04
#35000
1!
13
14
1N
1v
0w
1@
1<
0;
1K
1|
#40000
0!
03
04
#45000
1!
13
14
1O
1L
1w
1F
0B
0@
0<
17
0K
0|
0{
1z
#50000
0!
03
04
#55000
1!
13
14
1q
0L
1u
0v
0w
1h
0i
1Q
0E
0?
0F
1B
1;
07
1R
0I
19
1P
1+
1T
0R
1{
0z
1U
#60000
0!
03
04
#65000
1!
13
14
0u
1v
1t
1@
1<
0;
1:
16
1K
1|
#70000
0!
03
04
#75000
1!
13
14
1L
1w
1y
0B
0<
17
0K
0{
#80000
0!
03
04
#85000
1!
13
14
1o
0q
0L
0v
1i
1W
0T
0Q
1E
1?
1B
0@
1;
07
0U
1R
1=
08
06
09
0P
1V
1)
0+
0W
1X
1U
0R
0|
1{
0X
#90000
0!
03
04
#95000
1!
13
14
1v
0w
0t
1@
1<
0;
0:
1K
1|
#100000
0!
03
04
#105000
1!
13
14
1L
1w
0y
0E
0?
1F
0B
0@
0<
17
1@
0F
0K
0|
0{
1z
0z
1|
#110000
0!
03
04
#115000
1!
13
14
0L
0v
1g
0h
0i
1B
0@
1;
07
1R
1I
0|
1{
#120000
0!
03
04
#125000
1!
13
14
1v
0w
1@
1<
0;
16
1K
1|
#130000
0!
03
04
#135000
1!
13
14
1L
1w
0B
0<
17
0K
0{
#140000
0!
03
04
#145000
1!
13
14
1p
1q
0L
0v
1i
1W
1B
0@
1;
07
0U
18
06
1P
1S
1*
1+
1X
0|
1{
#150000
0!
03
04
#155000
1!
13
14
1v
0w
1@
1<
0;
1K
1|
#160000
0!
03
04
#165000
1!
13
14
1L
1w
0B
0<
17
0K
0{
#170000
0!
03
04
#175000
1!
13
14
1n
0o
0L
0v
1h
0i
0W
1Q
1E
1?
1B
0@
1;
07
1Z
0I
0V
1Y
0X
1(
0)
0Z
1T
1X
0R
1[
0|
1{
0[
1U
#180000
0!
03
04
#185000
1!
13
14
1v
0w
1@
1<
0;
16
1K
1|
#190000
0!
03
04
#195000
1!
13
14
1L
1w
1F
0B
0@
0<
17
0K
0|
0{
1z
#200000
0!
03
04
#205000
1!
13
14
1o
0p
0q
0L
1u
0v
0w
1i
1W
0T
0Q
0E
0?
1>
0F
1B
1;
07
0U
1R
0=
08
06
19
0P
0S
1V
1)
0*
0+
1Z
0W
0X
1U
0R
1{
0z
0Z
1[
1X
0[
#210000
0!
03
04
#215000
1!
13
14
0u
1v
1t
1@
1<
0;
1:
1K
1|
#220000
0!
03
04
#225000
1!
13
14
1L
1w
1y
1E
1?
0B
0<
17
0@
1F
0K
0{
1z
0|
#230000
0!
03
04
#235000
1!
13
14
0L
1u
0v
0w
1f
0g
0h
0i
0E
0?
0F
1B
1;
07
1R
09
1{
0z
#240000
0!
03
04
#245000
1!
13
14
0u
1v
1s
0t
1@
1<
0;
16
1K
1|
#250000
0!
03
04
#255000
1!
13
14
1L
1w
0y
1x
0B
0<
17
0K
0{
#260000
0!
03
04
#265000
1!
13
14
1p
0L
0v
1i
1T
1B
0@
1;
07
0R
1I
18
06
1S
1*
1W
0U
0|
1{
1Z
0X
1[
#270000
0!
03
04
#275000
1!
13
14
1v
0w
0s
1@
1<
0;
0:
1K
1|
#280000
0!
03
04
#285000
1!
13
14
1L
1w
0x
0B
0<
17
0K
0{
#290000
0!
03
04
#295000
1!
13
14
1m
0n
0o
0p
1q
0L
0v
1h
0i
0W
0T
1Q
1E
1?
1B
0@
1;
07
0Z
1]
1U
0I
1P
0S
0V
0Y
1X
1\
0[
1'
0(
0)
0*
1+
0]
0X
0U
1R
1[
1^
0|
1{
0^
#300000
0!
03
04
#305000
1!
13
14
1v
0w
1@
1<
0;
16
1K
1|
#310000
0!
03
04
#315000
1!
13
14
1L
1w
1F
0B
0@
0<
17
0K
0|
0{
1z
#320000
0!
03
04
#325000
1!
13
14
1p
0q
0L
1u
0v
0w
1i
1T
0Q
0E
0?
0F
1B
1;
07
0R
1=
08
06
19
0P
1S
1*
0+
0T
1U
1R
1{
0z
0U
#330000
0!
03
04
#335000
1!
13
14
0u
1v
1t
1@
1<
0;
1:
1K
1|
#340000
0!
03
04
#345000
1!
13
14
1L
1w
1y
1E
1?
0B
0<
17
0@
1F
0K
0{
1z
0|
#350000
0!
03
04
#355000
1!
13
14
0L
1u
0v
0w
1g
0h
0i
1T
0E
0?
0F
1B
1;
07
1U
0R
09
1W
0U
1{
0z
1X
#360000
0!
03
04
#365000
1!
13
14
0u
1v
1s
0t
1@
1<
0;
16
1K
1|
#370000
0!
03
04
#375000
1!
13
14
1L
1w
0y
1x
1E
1?
0B
0<
17
0@
1F
0K
0{
1z
0|
#380000
0!
03
04
#385000
1!
13
14
1n
0p
0L
1u
0v
0w
1i
0W
0T
0E
0?
0F
1B
1;
07
1Z
1U
1R
18
06
19
0S
1Y
0X
1(
0*
0Z
1]
1X
0U
0[
1{
0z
0]
1[
1^
0^
#390000
0!
03
04
#395000
1!
13
14
0u
1v
1t
1@
1<
0;
1A
0:
1K
1|
#400000
0!
03
04
#405000
1!
13
14
1L
1w
1y
1E
1?
0B
0<
17
0@
1F
0K
0{
1z
0|
#410000
0!
03
04
#415000
1!
13
14
1p
0L
1u
0v
0w
1h
0i
0E
0?
0F
1B
1;
07
09
1S
1*
1{
0z
#420000
0!
03
04
#425000
1!
13
14
0u
1v
1r
0s
0t
1D
0B
1@
1<
0;
16
1F
1|
0{
1z
#430000
0!
03
04
#435000
1!
13
14
1u
0v
1w
0y
0x
0<
1G
06
#440000
0!
03
04
#445000
1!
13
14
1H
1#
#450000
0!
03
04
#455000
1!
13
14
#460000
0!
03
04
#465000
1!
13
14
#470000
0!
03
04
#475000
1!
13
14
#480000
0!
03
04
#485000
1!
13
14
#490000
0!
03
04
#495000
1!
13
14
#500000
0!
03
04
#505000
1!
13
14
#510000
0!
03
04
#515000
1!
13
14
#520000
0!
03
04
#525000
1!
13
14
#530000
0!
03
04
#535000
1!
13
14
#540000
0!
03
04
#545000
1!
13
14
#550000
0!
03
04
#555000
1!
13
14
#560000
0!
03
04
#565000
1!
13
14
#570000
0!
03
04
#575000
1!
13
14
#580000
0!
03
04
#585000
1!
13
14
#590000
0!
03
04
#595000
1!
13
14
#600000
0!
03
04
#605000
1!
13
14
#610000
0!
03
04
#615000
1!
13
14
#620000
0!
03
04
#625000
1!
13
14
#630000
0!
03
04
#635000
1!
13
14
#640000
0!
03
04
#645000
1!
13
14
#650000
0!
03
04
#655000
1!
13
14
#660000
0!
03
04
#665000
1!
13
14
#670000
0!
03
04
#675000
1!
13
14
#680000
0!
03
04
#685000
1!
13
14
#690000
0!
03
04
#695000
1!
13
14
#700000
0!
03
04
#705000
1!
13
14
#710000
0!
03
04
#715000
1!
13
14
#720000
0!
03
04
#725000
1!
13
14
#730000
0!
03
04
#735000
1!
13
14
#740000
0!
03
04
#745000
1!
13
14
#750000
0!
03
04
#755000
1!
13
14
#760000
0!
03
04
#765000
1!
13
14
#770000
0!
03
04
#775000
1!
13
14
#780000
0!
03
04
#785000
1!
13
14
#790000
0!
03
04
#795000
1!
13
14
#800000
0!
03
04
#805000
1!
13
14
#810000
0!
03
04
#815000
1!
13
14
#820000
0!
03
04
#825000
1!
13
14
#830000
0!
03
04
#835000
1!
13
14
#840000
0!
03
04
#845000
1!
13
14
#850000
0!
03
04
#855000
1!
13
14
#860000
0!
03
04
#865000
1!
13
14
#870000
0!
03
04
#875000
1!
13
14
#880000
0!
03
04
#885000
1!
13
14
#890000
0!
03
04
#895000
1!
13
14
#900000
0!
03
04
#905000
1!
13
14
#910000
0!
03
04
#915000
1!
13
14
#920000
0!
03
04
#925000
1!
13
14
#930000
0!
03
04
#935000
1!
13
14
#940000
0!
03
04
#945000
1!
13
14
#950000
0!
03
04
#955000
1!
13
14
#960000
0!
03
04
#965000
1!
13
14
#970000
0!
03
04
#975000
1!
13
14
#980000
0!
03
04
#985000
1!
13
14
#990000
0!
03
04
#995000
1!
13
14
